{
  "error": "no such element",
  "message": "no such element: Unable to locate element: {\"method\":\"css selector\",\"selector\":\"div#preloader\"}\n  (Session info: chrome=75.0.3770.142)",
  "stacktrace": "Backtrace:\n\tOrdinal0 [0x01237DF3+1474035]\n\tOrdinal0 [0x011B07D1+919505]\n\tOrdinal0 [0x0114CB43+510787]\n\tOrdinal0 [0x010ECAAD+117421]\n\tOrdinal0 [0x01108610+230928]\n\tOrdinal0 [0x010FF060+192608]\n\tOrdinal0 [0x01107404+226308]\n\tOrdinal0 [0x010FEECB+192203]\n\tOrdinal0 [0x010E5FF6+90102]\n\tOrdinal0 [0x010E765A+95834]\n\tOrdinal0 [0x010E7554+95572]\n\tGetHandleVerifier [0x0139231C+1249612]\n\tGetHandleVerifier [0x012E1575+525221]\n\tGetHandleVerifier [0x012E1310+524608]\n\tOrdinal0 [0x01245D28+1531176]\n\tGetHandleVerifier [0x012E1D4A+527226]\n\tOrdinal0 [0x011C75F6+1013238]\n\tOrdinal0 [0x011C746F+1012847]\n\tOrdinal0 [0x011D365B+1062491]\n\tOrdinal0 [0x011D379F+1062815]\n\tOrdinal0 [0x011D2745+1058629]\n\tBaseThreadInitThunk [0x762933CA+18]\n\tRtlInitializeExceptionChain [0x76F69ED2+99]\n\tRtlInitializeExceptionChain [0x76F69EA5+54]\n"
}