{
  "error": "no such element",
  "message": "no such element: Unable to locate element: {\"method\":\"css selector\",\"selector\":\"div#preloader\"}\n  (Session info: chrome=75.0.3770.142)",
  "stacktrace": "Backtrace:\n\tOrdinal0 [0x014F7DF3+1474035]\n\tOrdinal0 [0x014707D1+919505]\n\tOrdinal0 [0x0140CB43+510787]\n\tOrdinal0 [0x013ACAAD+117421]\n\tOrdinal0 [0x013C8610+230928]\n\tOrdinal0 [0x013BF060+192608]\n\tOrdinal0 [0x013C7404+226308]\n\tOrdinal0 [0x013BEECB+192203]\n\tOrdinal0 [0x013A5FF6+90102]\n\tOrdinal0 [0x013A765A+95834]\n\tOrdinal0 [0x013A7554+95572]\n\tGetHandleVerifier [0x0165231C+1249612]\n\tGetHandleVerifier [0x015A1575+525221]\n\tGetHandleVerifier [0x015A1310+524608]\n\tOrdinal0 [0x01505D28+1531176]\n\tGetHandleVerifier [0x015A1D4A+527226]\n\tOrdinal0 [0x014875F6+1013238]\n\tOrdinal0 [0x0148746F+1012847]\n\tOrdinal0 [0x0149365B+1062491]\n\tOrdinal0 [0x0149379F+1062815]\n\tOrdinal0 [0x01492745+1058629]\n\tBaseThreadInitThunk [0x762933CA+18]\n\tRtlInitializeExceptionChain [0x76F69ED2+99]\n\tRtlInitializeExceptionChain [0x76F69EA5+54]\n"
}