{
  "error": "no such element",
  "message": "no such element: Unable to locate element: {\"method\":\"css selector\",\"selector\":\"div.profile\"}\n  (Session info: chrome=75.0.3770.142)",
  "stacktrace": "Backtrace:\n\tOrdinal0 [0x01227DF3+1474035]\n\tOrdinal0 [0x011A07D1+919505]\n\tOrdinal0 [0x0113CB43+510787]\n\tOrdinal0 [0x010DCAAD+117421]\n\tOrdinal0 [0x010F8610+230928]\n\tOrdinal0 [0x010EF060+192608]\n\tOrdinal0 [0x010F7404+226308]\n\tOrdinal0 [0x010EEECB+192203]\n\tOrdinal0 [0x010D5FF6+90102]\n\tOrdinal0 [0x010D765A+95834]\n\tOrdinal0 [0x010D7554+95572]\n\tGetHandleVerifier [0x0138231C+1249612]\n\tGetHandleVerifier [0x012D1575+525221]\n\tGetHandleVerifier [0x012D1310+524608]\n\tOrdinal0 [0x01235D28+1531176]\n\tGetHandleVerifier [0x012D1D4A+527226]\n\tOrdinal0 [0x011B75F6+1013238]\n\tOrdinal0 [0x011B746F+1012847]\n\tOrdinal0 [0x011C365B+1062491]\n\tOrdinal0 [0x011C379F+1062815]\n\tOrdinal0 [0x011C2745+1058629]\n\tBaseThreadInitThunk [0x762933CA+18]\n\tRtlInitializeExceptionChain [0x76F69ED2+99]\n\tRtlInitializeExceptionChain [0x76F69EA5+54]\n"
}