{
  "error": "no such element",
  "message": "no such element: Unable to locate element: {\"method\":\"css selector\",\"selector\":\"div#preloader\"}\n  (Session info: chrome=75.0.3770.142)",
  "stacktrace": "Backtrace:\n\tOrdinal0 [0x01047DF3+1474035]\n\tOrdinal0 [0x00FC07D1+919505]\n\tOrdinal0 [0x00F5CB43+510787]\n\tOrdinal0 [0x00EFCAAD+117421]\n\tOrdinal0 [0x00F18610+230928]\n\tOrdinal0 [0x00F0F060+192608]\n\tOrdinal0 [0x00F17404+226308]\n\tOrdinal0 [0x00F0EECB+192203]\n\tOrdinal0 [0x00EF5FF6+90102]\n\tOrdinal0 [0x00EF765A+95834]\n\tOrdinal0 [0x00EF7554+95572]\n\tGetHandleVerifier [0x011A231C+1249612]\n\tGetHandleVerifier [0x010F1575+525221]\n\tGetHandleVerifier [0x010F1310+524608]\n\tOrdinal0 [0x01055D28+1531176]\n\tGetHandleVerifier [0x010F1D4A+527226]\n\tOrdinal0 [0x00FD75F6+1013238]\n\tOrdinal0 [0x00FD746F+1012847]\n\tOrdinal0 [0x00FE365B+1062491]\n\tOrdinal0 [0x00FE379F+1062815]\n\tOrdinal0 [0x00FE2745+1058629]\n\tBaseThreadInitThunk [0x762933CA+18]\n\tRtlInitializeExceptionChain [0x76F69ED2+99]\n\tRtlInitializeExceptionChain [0x76F69EA5+54]\n"
}