{
  "error": "no such element",
  "message": "no such element: Unable to locate element: {\"method\":\"css selector\",\"selector\":\"div#preloader\"}\n  (Session info: chrome=75.0.3770.142)",
  "stacktrace": "Backtrace:\n\tOrdinal0 [0x003E7DF3+1474035]\n\tOrdinal0 [0x003607D1+919505]\n\tOrdinal0 [0x002FCB43+510787]\n\tOrdinal0 [0x0029CAAD+117421]\n\tOrdinal0 [0x002B8610+230928]\n\tOrdinal0 [0x002AF060+192608]\n\tOrdinal0 [0x002B7404+226308]\n\tOrdinal0 [0x002AEECB+192203]\n\tOrdinal0 [0x00295FF6+90102]\n\tOrdinal0 [0x0029765A+95834]\n\tOrdinal0 [0x00297554+95572]\n\tGetHandleVerifier [0x0054231C+1249612]\n\tGetHandleVerifier [0x00491575+525221]\n\tGetHandleVerifier [0x00491310+524608]\n\tOrdinal0 [0x003F5D28+1531176]\n\tGetHandleVerifier [0x00491D4A+527226]\n\tOrdinal0 [0x003775F6+1013238]\n\tOrdinal0 [0x0037746F+1012847]\n\tOrdinal0 [0x0038365B+1062491]\n\tOrdinal0 [0x0038379F+1062815]\n\tOrdinal0 [0x00382745+1058629]\n\tBaseThreadInitThunk [0x762933CA+18]\n\tRtlInitializeExceptionChain [0x76F69ED2+99]\n\tRtlInitializeExceptionChain [0x76F69EA5+54]\n"
}