{
  "error": "no such element",
  "message": "no such element: Unable to locate element: {\"method\":\"css selector\",\"selector\":\"div.toast div\"}\n  (Session info: chrome=75.0.3770.142)",
  "stacktrace": "Backtrace:\n\tOrdinal0 [0x004A7DF3+1474035]\n\tOrdinal0 [0x004207D1+919505]\n\tOrdinal0 [0x003BCB43+510787]\n\tOrdinal0 [0x0035CAAD+117421]\n\tOrdinal0 [0x00378610+230928]\n\tOrdinal0 [0x0036F060+192608]\n\tOrdinal0 [0x00377404+226308]\n\tOrdinal0 [0x0036EECB+192203]\n\tOrdinal0 [0x00355FF6+90102]\n\tOrdinal0 [0x0035765A+95834]\n\tOrdinal0 [0x00357554+95572]\n\tGetHandleVerifier [0x0060231C+1249612]\n\tGetHandleVerifier [0x00551575+525221]\n\tGetHandleVerifier [0x00551310+524608]\n\tOrdinal0 [0x004B5D28+1531176]\n\tGetHandleVerifier [0x00551D4A+527226]\n\tOrdinal0 [0x004375F6+1013238]\n\tOrdinal0 [0x0043746F+1012847]\n\tOrdinal0 [0x0044365B+1062491]\n\tOrdinal0 [0x0044379F+1062815]\n\tOrdinal0 [0x00442745+1058629]\n\tBaseThreadInitThunk [0x762933CA+18]\n\tRtlInitializeExceptionChain [0x76F69ED2+99]\n\tRtlInitializeExceptionChain [0x76F69EA5+54]\n"
}