{
  "error": "no such element",
  "message": "no such element: Unable to locate element: {\"method\":\"css selector\",\"selector\":\"div.toast div\"}\n  (Session info: chrome=75.0.3770.142)",
  "stacktrace": "Backtrace:\n\tOrdinal0 [0x01287DF3+1474035]\n\tOrdinal0 [0x012007D1+919505]\n\tOrdinal0 [0x0119CB43+510787]\n\tOrdinal0 [0x0113CAAD+117421]\n\tOrdinal0 [0x01158610+230928]\n\tOrdinal0 [0x0114F060+192608]\n\tOrdinal0 [0x01157404+226308]\n\tOrdinal0 [0x0114EECB+192203]\n\tOrdinal0 [0x01135FF6+90102]\n\tOrdinal0 [0x0113765A+95834]\n\tOrdinal0 [0x01137554+95572]\n\tGetHandleVerifier [0x013E231C+1249612]\n\tGetHandleVerifier [0x01331575+525221]\n\tGetHandleVerifier [0x01331310+524608]\n\tOrdinal0 [0x01295D28+1531176]\n\tGetHandleVerifier [0x01331D4A+527226]\n\tOrdinal0 [0x012175F6+1013238]\n\tOrdinal0 [0x0121746F+1012847]\n\tOrdinal0 [0x0122365B+1062491]\n\tOrdinal0 [0x0122379F+1062815]\n\tOrdinal0 [0x01222745+1058629]\n\tBaseThreadInitThunk [0x762933CA+18]\n\tRtlInitializeExceptionChain [0x76F69ED2+99]\n\tRtlInitializeExceptionChain [0x76F69EA5+54]\n"
}