{
  "error": "no such element",
  "message": "no such element: Unable to locate element: {\"method\":\"css selector\",\"selector\":\"div.profile.navbar-link\"}\n  (Session info: chrome=75.0.3770.142)",
  "stacktrace": "Backtrace:\n\tOrdinal0 [0x00547DF3+1474035]\n\tOrdinal0 [0x004C07D1+919505]\n\tOrdinal0 [0x0045CB43+510787]\n\tOrdinal0 [0x003FCAAD+117421]\n\tOrdinal0 [0x00418610+230928]\n\tOrdinal0 [0x0040F060+192608]\n\tOrdinal0 [0x00417404+226308]\n\tOrdinal0 [0x0040EECB+192203]\n\tOrdinal0 [0x003F5FF6+90102]\n\tOrdinal0 [0x003F765A+95834]\n\tOrdinal0 [0x003F7554+95572]\n\tGetHandleVerifier [0x006A231C+1249612]\n\tGetHandleVerifier [0x005F1575+525221]\n\tGetHandleVerifier [0x005F1310+524608]\n\tOrdinal0 [0x00555D28+1531176]\n\tGetHandleVerifier [0x005F1D4A+527226]\n\tOrdinal0 [0x004D75F6+1013238]\n\tOrdinal0 [0x004D746F+1012847]\n\tOrdinal0 [0x004E365B+1062491]\n\tOrdinal0 [0x004E379F+1062815]\n\tOrdinal0 [0x004E2745+1058629]\n\tBaseThreadInitThunk [0x762933CA+18]\n\tRtlInitializeExceptionChain [0x76F69ED2+99]\n\tRtlInitializeExceptionChain [0x76F69EA5+54]\n"
}