{
  "error": "no such element",
  "message": "no such element: Unable to locate element: {\"method\":\"css selector\",\"selector\":\"#list-name\"}\n  (Session info: chrome=75.0.3770.142)",
  "stacktrace": "Backtrace:\n\tOrdinal0 [0x00217DF3+1474035]\n\tOrdinal0 [0x001907D1+919505]\n\tOrdinal0 [0x0012CB43+510787]\n\tOrdinal0 [0x000CCAAD+117421]\n\tOrdinal0 [0x000E8610+230928]\n\tOrdinal0 [0x000DF060+192608]\n\tOrdinal0 [0x000E7404+226308]\n\tOrdinal0 [0x000DEECB+192203]\n\tOrdinal0 [0x000C5FF6+90102]\n\tOrdinal0 [0x000C765A+95834]\n\tOrdinal0 [0x000C7554+95572]\n\tGetHandleVerifier [0x0037231C+1249612]\n\tGetHandleVerifier [0x002C1575+525221]\n\tGetHandleVerifier [0x002C1310+524608]\n\tOrdinal0 [0x00225D28+1531176]\n\tGetHandleVerifier [0x002C1D4A+527226]\n\tOrdinal0 [0x001A75F6+1013238]\n\tOrdinal0 [0x001A746F+1012847]\n\tOrdinal0 [0x001B365B+1062491]\n\tOrdinal0 [0x001B379F+1062815]\n\tOrdinal0 [0x001B2745+1058629]\n\tBaseThreadInitThunk [0x762933CA+18]\n\tRtlInitializeExceptionChain [0x76F69ED2+99]\n\tRtlInitializeExceptionChain [0x76F69EA5+54]\n"
}