{
  "error": "no such element",
  "message": "no such element: Unable to locate element: {\"method\":\"css selector\",\"selector\":\"#list-name\"}\n  (Session info: chrome=75.0.3770.142)",
  "stacktrace": "Backtrace:\n\tOrdinal0 [0x01487DF3+1474035]\n\tOrdinal0 [0x014007D1+919505]\n\tOrdinal0 [0x0139CB43+510787]\n\tOrdinal0 [0x0133CAAD+117421]\n\tOrdinal0 [0x01358610+230928]\n\tOrdinal0 [0x0134F060+192608]\n\tOrdinal0 [0x01357404+226308]\n\tOrdinal0 [0x0134EECB+192203]\n\tOrdinal0 [0x01335FF6+90102]\n\tOrdinal0 [0x0133765A+95834]\n\tOrdinal0 [0x01337554+95572]\n\tGetHandleVerifier [0x015E231C+1249612]\n\tGetHandleVerifier [0x01531575+525221]\n\tGetHandleVerifier [0x01531310+524608]\n\tOrdinal0 [0x01495D28+1531176]\n\tGetHandleVerifier [0x01531D4A+527226]\n\tOrdinal0 [0x014175F6+1013238]\n\tOrdinal0 [0x0141746F+1012847]\n\tOrdinal0 [0x0142365B+1062491]\n\tOrdinal0 [0x0142379F+1062815]\n\tOrdinal0 [0x01422745+1058629]\n\tBaseThreadInitThunk [0x762933CA+18]\n\tRtlInitializeExceptionChain [0x76F69ED2+99]\n\tRtlInitializeExceptionChain [0x76F69EA5+54]\n"
}