{
  "error": "no such element",
  "message": "no such element: Unable to locate element: {\"method\":\"css selector\",\"selector\":\"input[name=email]\"}\n  (Session info: chrome=75.0.3770.142)",
  "stacktrace": "Backtrace:\n\tOrdinal0 [0x00267DF3+1474035]\n\tOrdinal0 [0x001E07D1+919505]\n\tOrdinal0 [0x0017CB43+510787]\n\tOrdinal0 [0x0011CAAD+117421]\n\tOrdinal0 [0x00138610+230928]\n\tOrdinal0 [0x0012F060+192608]\n\tOrdinal0 [0x00137404+226308]\n\tOrdinal0 [0x0012EECB+192203]\n\tOrdinal0 [0x00115FF6+90102]\n\tOrdinal0 [0x0011765A+95834]\n\tOrdinal0 [0x00117554+95572]\n\tGetHandleVerifier [0x003C231C+1249612]\n\tGetHandleVerifier [0x00311575+525221]\n\tGetHandleVerifier [0x00311310+524608]\n\tOrdinal0 [0x00275D28+1531176]\n\tGetHandleVerifier [0x00311D4A+527226]\n\tOrdinal0 [0x001F75F6+1013238]\n\tOrdinal0 [0x001F746F+1012847]\n\tOrdinal0 [0x0020365B+1062491]\n\tOrdinal0 [0x0020379F+1062815]\n\tOrdinal0 [0x00202745+1058629]\n\tBaseThreadInitThunk [0x762933CA+18]\n\tRtlInitializeExceptionChain [0x76F69ED2+99]\n\tRtlInitializeExceptionChain [0x76F69EA5+54]\n"
}