{
  "error": "no such element",
  "message": "no such element: Unable to locate element: {\"method\":\"css selector\",\"selector\":\"div#preloader\"}\n  (Session info: chrome=75.0.3770.142)",
  "stacktrace": "Backtrace:\n\tOrdinal0 [0x011E7DF3+1474035]\n\tOrdinal0 [0x011607D1+919505]\n\tOrdinal0 [0x010FCB43+510787]\n\tOrdinal0 [0x0109CAAD+117421]\n\tOrdinal0 [0x010B8610+230928]\n\tOrdinal0 [0x010AF060+192608]\n\tOrdinal0 [0x010B7404+226308]\n\tOrdinal0 [0x010AEECB+192203]\n\tOrdinal0 [0x01095FF6+90102]\n\tOrdinal0 [0x0109765A+95834]\n\tOrdinal0 [0x01097554+95572]\n\tGetHandleVerifier [0x0134231C+1249612]\n\tGetHandleVerifier [0x01291575+525221]\n\tGetHandleVerifier [0x01291310+524608]\n\tOrdinal0 [0x011F5D28+1531176]\n\tGetHandleVerifier [0x01291D4A+527226]\n\tOrdinal0 [0x011775F6+1013238]\n\tOrdinal0 [0x0117746F+1012847]\n\tOrdinal0 [0x0118365B+1062491]\n\tOrdinal0 [0x0118379F+1062815]\n\tOrdinal0 [0x01182745+1058629]\n\tBaseThreadInitThunk [0x762933CA+18]\n\tRtlInitializeExceptionChain [0x76F69ED2+99]\n\tRtlInitializeExceptionChain [0x76F69EA5+54]\n"
}