{
  "error": "no such element",
  "message": "no such element: Unable to locate element: {\"method\":\"css selector\",\"selector\":\"div.toast div\"}\n  (Session info: chrome=75.0.3770.142)",
  "stacktrace": "Backtrace:\n\tOrdinal0 [0x01067DF3+1474035]\n\tOrdinal0 [0x00FE07D1+919505]\n\tOrdinal0 [0x00F7CB43+510787]\n\tOrdinal0 [0x00F1CAAD+117421]\n\tOrdinal0 [0x00F38610+230928]\n\tOrdinal0 [0x00F2F060+192608]\n\tOrdinal0 [0x00F37404+226308]\n\tOrdinal0 [0x00F2EECB+192203]\n\tOrdinal0 [0x00F15FF6+90102]\n\tOrdinal0 [0x00F1765A+95834]\n\tOrdinal0 [0x00F17554+95572]\n\tGetHandleVerifier [0x011C231C+1249612]\n\tGetHandleVerifier [0x01111575+525221]\n\tGetHandleVerifier [0x01111310+524608]\n\tOrdinal0 [0x01075D28+1531176]\n\tGetHandleVerifier [0x01111D4A+527226]\n\tOrdinal0 [0x00FF75F6+1013238]\n\tOrdinal0 [0x00FF746F+1012847]\n\tOrdinal0 [0x0100365B+1062491]\n\tOrdinal0 [0x0100379F+1062815]\n\tOrdinal0 [0x01002745+1058629]\n\tBaseThreadInitThunk [0x762933CA+18]\n\tRtlInitializeExceptionChain [0x76F69ED2+99]\n\tRtlInitializeExceptionChain [0x76F69EA5+54]\n"
}