{
  "error": "no such element",
  "message": "no such element: Unable to locate element: {\"method\":\"css selector\",\"selector\":\"div#preloader\"}\n  (Session info: chrome=75.0.3770.142)",
  "stacktrace": "Backtrace:\n\tOrdinal0 [0x00FD7DF3+1474035]\n\tOrdinal0 [0x00F507D1+919505]\n\tOrdinal0 [0x00EECB43+510787]\n\tOrdinal0 [0x00E8CAAD+117421]\n\tOrdinal0 [0x00EA8610+230928]\n\tOrdinal0 [0x00E9F060+192608]\n\tOrdinal0 [0x00EA7404+226308]\n\tOrdinal0 [0x00E9EECB+192203]\n\tOrdinal0 [0x00E85FF6+90102]\n\tOrdinal0 [0x00E8765A+95834]\n\tOrdinal0 [0x00E87554+95572]\n\tGetHandleVerifier [0x0113231C+1249612]\n\tGetHandleVerifier [0x01081575+525221]\n\tGetHandleVerifier [0x01081310+524608]\n\tOrdinal0 [0x00FE5D28+1531176]\n\tGetHandleVerifier [0x01081D4A+527226]\n\tOrdinal0 [0x00F675F6+1013238]\n\tOrdinal0 [0x00F6746F+1012847]\n\tOrdinal0 [0x00F7365B+1062491]\n\tOrdinal0 [0x00F7379F+1062815]\n\tOrdinal0 [0x00F72745+1058629]\n\tBaseThreadInitThunk [0x762933CA+18]\n\tRtlInitializeExceptionChain [0x76F69ED2+99]\n\tRtlInitializeExceptionChain [0x76F69EA5+54]\n"
}