{
  "error": "no such element",
  "message": "no such element: Unable to locate element: {\"method\":\"css selector\",\"selector\":\"div.toast div\"}\n  (Session info: chrome=75.0.3770.142)",
  "stacktrace": "Backtrace:\n\tOrdinal0 [0x012D7DF3+1474035]\n\tOrdinal0 [0x012507D1+919505]\n\tOrdinal0 [0x011ECB43+510787]\n\tOrdinal0 [0x0118CAAD+117421]\n\tOrdinal0 [0x011A8610+230928]\n\tOrdinal0 [0x0119F060+192608]\n\tOrdinal0 [0x011A7404+226308]\n\tOrdinal0 [0x0119EECB+192203]\n\tOrdinal0 [0x01185FF6+90102]\n\tOrdinal0 [0x0118765A+95834]\n\tOrdinal0 [0x01187554+95572]\n\tGetHandleVerifier [0x0143231C+1249612]\n\tGetHandleVerifier [0x01381575+525221]\n\tGetHandleVerifier [0x01381310+524608]\n\tOrdinal0 [0x012E5D28+1531176]\n\tGetHandleVerifier [0x01381D4A+527226]\n\tOrdinal0 [0x012675F6+1013238]\n\tOrdinal0 [0x0126746F+1012847]\n\tOrdinal0 [0x0127365B+1062491]\n\tOrdinal0 [0x0127379F+1062815]\n\tOrdinal0 [0x01272745+1058629]\n\tBaseThreadInitThunk [0x762933CA+18]\n\tRtlInitializeExceptionChain [0x76F69ED2+99]\n\tRtlInitializeExceptionChain [0x76F69EA5+54]\n"
}