{
  "uid" : "83edc06c07f9ae9e47eb6dd1b683e4e2",
  "name" : "packages",
  "children" : [ {
    "name" : "test",
    "children" : [ {
      "name" : "should represent all items in list",
      "uid" : "82910290adbda2db",
      "parentUid" : "d662795e8d349f9b5595bf62f43ea7ae",
      "status" : "broken",
      "time" : {
        "start" : 1564515140151,
        "stop" : 1564515140293,
        "duration" : 142
      },
      "flaky" : false,
      "parameters" : [ "chrome" ]
    }, {
      "name" : "should display validation fail on label",
      "uid" : "573b9073212273dd",
      "parentUid" : "d662795e8d349f9b5595bf62f43ea7ae",
      "status" : "skipped",
      "time" : {
        "start" : 1564515141140,
        "stop" : 1564515141140,
        "duration" : 0
      },
      "flaky" : false,
      "parameters" : [ ]
    }, {
      "name" : "should represent all items in list",
      "uid" : "5b97a8f3449acb1f",
      "parentUid" : "d662795e8d349f9b5595bf62f43ea7ae",
      "status" : "skipped",
      "time" : {
        "start" : 1564515168356,
        "stop" : 1564515168357,
        "duration" : 1
      },
      "flaky" : false,
      "parameters" : [ ]
    }, {
      "name" : "should display validation fail on field",
      "uid" : "b07349f9234f359a",
      "parentUid" : "d662795e8d349f9b5595bf62f43ea7ae",
      "status" : "skipped",
      "time" : {
        "start" : 1564515168357,
        "stop" : 1564515168357,
        "duration" : 0
      },
      "flaky" : false,
      "parameters" : [ ]
    }, {
      "name" : "should display validation fail on label",
      "uid" : "6da345f4bd0a622d",
      "parentUid" : "d662795e8d349f9b5595bf62f43ea7ae",
      "status" : "broken",
      "time" : {
        "start" : 1564515168361,
        "stop" : 1564515168375,
        "duration" : 14
      },
      "flaky" : false,
      "parameters" : [ "chrome" ]
    }, {
      "name" : "should not login with wrong password",
      "uid" : "ef62fa2d31d5e41a",
      "parentUid" : "d662795e8d349f9b5595bf62f43ea7ae",
      "status" : "skipped",
      "time" : {
        "start" : 1564515168803,
        "stop" : 1564515168803,
        "duration" : 0
      },
      "flaky" : false,
      "parameters" : [ ]
    } ],
    "uid" : "d662795e8d349f9b5595bf62f43ea7ae"
  } ]
}