{
  "cec2b7ee0ffd815c044d665249d42ab" : {
    "statistic" : {
      "failed" : 0,
      "broken" : 0,
      "skipped" : 1,
      "passed" : 0,
      "unknown" : 0,
      "total" : 1
    },
    "items" : [ {
      "uid" : "b07349f9234f359a",
      "status" : "skipped",
      "statusDetails" : "Test ignored",
      "time" : {
        "start" : 1564515168357,
        "stop" : 1564515168357,
        "duration" : 0
      }
    } ]
  },
  "6b09608f9a75008f8066ea3b35da5309" : {
    "statistic" : {
      "failed" : 0,
      "broken" : 1,
      "skipped" : 0,
      "passed" : 0,
      "unknown" : 0,
      "total" : 1
    },
    "items" : [ {
      "uid" : "82910290adbda2db",
      "status" : "broken",
      "statusDetails" : "Page.loginWithDefaultUser is not a function",
      "time" : {
        "start" : 1564515140151,
        "stop" : 1564515140293,
        "duration" : 142
      }
    } ]
  },
  "9dd5a2bd0234764bb3aa8de9a14f51d7" : {
    "statistic" : {
      "failed" : 0,
      "broken" : 0,
      "skipped" : 1,
      "passed" : 0,
      "unknown" : 0,
      "total" : 1
    },
    "items" : [ {
      "uid" : "573b9073212273dd",
      "status" : "skipped",
      "statusDetails" : "Test ignored",
      "time" : {
        "start" : 1564515141140,
        "stop" : 1564515141140,
        "duration" : 0
      }
    } ]
  },
  "42428b3a28a0c4215c25db2f75f51f2f" : {
    "statistic" : {
      "failed" : 0,
      "broken" : 0,
      "skipped" : 1,
      "passed" : 0,
      "unknown" : 0,
      "total" : 1
    },
    "items" : [ {
      "uid" : "5b97a8f3449acb1f",
      "status" : "skipped",
      "statusDetails" : "Test ignored",
      "time" : {
        "start" : 1564515168356,
        "stop" : 1564515168357,
        "duration" : 1
      }
    } ]
  },
  "23f25d5cf528d71344bbad8194c7e8d2" : {
    "statistic" : {
      "failed" : 0,
      "broken" : 1,
      "skipped" : 0,
      "passed" : 0,
      "unknown" : 0,
      "total" : 1
    },
    "items" : [ {
      "uid" : "6da345f4bd0a622d",
      "status" : "broken",
      "statusDetails" : "Page.loginWithDefaultUser is not a function",
      "time" : {
        "start" : 1564515168361,
        "stop" : 1564515168375,
        "duration" : 14
      }
    } ]
  },
  "40da5a1408f2d8ddd14f90609904fbb6" : {
    "statistic" : {
      "failed" : 0,
      "broken" : 0,
      "skipped" : 1,
      "passed" : 0,
      "unknown" : 0,
      "total" : 1
    },
    "items" : [ {
      "uid" : "ef62fa2d31d5e41a",
      "status" : "skipped",
      "statusDetails" : "Test ignored",
      "time" : {
        "start" : 1564515168803,
        "stop" : 1564515168803,
        "duration" : 0
      }
    } ]
  }
}